<?xml version="1.0" encoding="UTF-8"?>
<svg width="16px" height="15px" viewBox="0 0 16 15" version="1.1" xmlns="http://www.w3.org/2000/svg" xmlns:xlink="http://www.w3.org/1999/xlink">
    <!-- Generator: Sketch 48.2 (47327) - http://www.bohemiancoding.com/sketch -->
    <title>Vodafone_(2002-2006)</title>
    <desc>Created with Sketch.</desc>
    <defs></defs>
    <g id="01_Dashboard" stroke="none" stroke-width="1" fill="none" fill-rule="evenodd" transform="translate(-190.000000, -127.000000)">
        <g id="Group-17" transform="translate(170.000000, 62.000000)" fill="#E8303F" fill-rule="nonzero">
            <g id="Vodafone_(2002-2006)" transform="translate(20.000000, 65.000000)">
                <path d="M6.35689655,0.175 C7.7137931,-0.0482758621 9.15603448,0.0112068966 10.4405172,0.537068966 C10.1482759,0.562931034 9.85689655,0.6 9.56465517,0.623275862 C6.97155172,0.887068966 4.56551724,2.72931034 3.7862069,5.24137931 C3.59568966,5.80344828 3.57931034,6.4 3.50172414,6.98275862 C3.56724138,7.68448276 3.66724138,8.40172414 3.98706897,9.03965517 C4.46293103,10.0017241 5.29396552,10.8094828 6.3137931,11.1715517 C7.23534483,11.5232759 8.29396552,11.5172414 9.20172414,11.1241379 C10.4689655,10.6094828 11.4206897,9.38189655 11.5758621,8.01982759 C11.6603448,7.07068966 11.5232759,6.05 10.9396552,5.26896552 C10.3698276,4.39396552 9.35689655,3.95603448 8.3862069,3.68793103 C8.32413793,3.00948276 8.55086207,2.33362069 8.94482759,1.7862069 C9.37672414,1.22155172 10.0068966,0.812068966 10.6905172,0.627586207 C13.2715517,1.56034483 15.2137931,4.06810345 15.4637931,6.80517241 C15.4810345,7.525 15.525,8.25775862 15.3568966,8.9637931 C15.0284483,10.6474138 14.0698276,12.1836207 12.7422414,13.262069 C11.5939655,14.1922414 10.1758621,14.7905172 8.70775862,14.9525862 C8.04741379,14.9862069 7.38534483,14.9810345 6.725,14.95 C5.3387931,14.7413793 3.9887931,14.2017241 2.88534483,13.3275862 C1.05172414,11.8982759 -0.049137931,9.58534483 0.0284482759,7.25862069 C0.1,5.76206897 0.631896552,4.28793103 1.54224138,3.09655172 C2.71206897,1.56982759 4.4637931,0.512931034 6.35689655,0.175 Z" id="Shape"></path>
            </g>
        </g>
    </g>
</svg>