<?xml version="1.0" encoding="UTF-8"?>
<svg width="8px" height="8px" viewBox="0 0 8 8" version="1.1" xmlns="http://www.w3.org/2000/svg" xmlns:xlink="http://www.w3.org/1999/xlink">
    <!-- Generator: Sketch 48.2 (47327) - http://www.bohemiancoding.com/sketch -->
    <title>Shape</title>
    <desc>Created with Sketch.</desc>
    <defs></defs>
    <g id="Symbols" stroke="none" stroke-width="1" fill="none" fill-rule="evenodd">
        <path d="M0.181818182,7.81818182 C0.293706294,7.93006993 0.433566434,7.98601399 0.573426573,7.98601399 C0.713286713,7.98601399 0.853146853,7.93006993 0.965034965,7.81818182 L4,4.7972028 L7.03496503,7.83216783 C7.14685315,7.94405594 7.28671329,8 7.42657343,8 C7.56643357,8 7.70629371,7.94405594 7.81818182,7.83216783 C8.04195804,7.60839161 8.04195804,7.25874126 7.81818182,7.03496503 L4.7972028,4 L7.83216783,0.965034965 C8.05594406,0.741258741 8.05594406,0.391608392 7.83216783,0.167832168 C7.60839161,-0.0559440559 7.25874126,-0.0559440559 7.03496503,0.167832168 L4,3.2027972 L0.965034965,0.181818182 C0.741258741,-0.041958042 0.391608392,-0.041958042 0.167832168,0.181818182 C-0.0559440559,0.405594406 -0.0559440559,0.755244755 0.167832168,0.979020979 L3.2027972,4 L0.181818182,7.03496503 C-0.041958042,7.24475524 -0.041958042,7.60839161 0.181818182,7.81818182 Z" id="Shape" fill="#000000" fill-rule="nonzero"></path>
    </g>
</svg>